{
    "prepare_queue": {
        "installed": [],
        "uninstalled": []
    },
    "config_munge": {
        "files": {
            "res/xml/config.xml": {
                "parents": {
                    "/*": [
                        {
                            "xml": "<feature name=\"Whitelist\"><param name=\"android-package\" value=\"org.apache.cordova.whitelist.WhitelistPlugin\" /><param name=\"onload\" value=\"true\" /></feature>",
                            "count": 1
                        },
                        {
                            "xml": "<feature name=\"Serial\"><param name=\"android-package\" value=\"fr.drangies.cordova.serial.Serial\" /></feature>",
                            "count": 1
                        },
                        {
                            "xml": "<feature name=\"SplashScreen\"><param name=\"android-package\" value=\"org.apache.cordova.splashscreen.SplashScreen\" /><param name=\"onload\" value=\"true\" /></feature>",
                            "count": 1
                        },
                        {
                            "xml": "<feature name=\"StatusBar\"><param name=\"android-package\" value=\"org.apache.cordova.statusbar.StatusBar\" /><param name=\"onload\" value=\"true\" /></feature>",
                            "count": 1
                        }
                    ]
                }
            }
        }
    },
    "installed_plugins": {
        "cordova-plugin-whitelist": {
            "PACKAGE_NAME": "org.vitordangelo.comedordecachorro"
        },
        "fr.drangies.cordova.serial": {
            "PACKAGE_NAME": "org.vitordangelo.comedordecachorro"
        },
        "cordova-plugin-splashscreen": {
            "PACKAGE_NAME": "org.vitordangelo.comedordecachorro"
        },
        "cordova-plugin-statusbar": {
            "PACKAGE_NAME": "org.vitordangelo.comedordecachorro"
        }
    },
    "dependent_plugins": {},
    "modules": [
        {
            "id": "fr.drangies.cordova.serial.Serial",
            "file": "plugins/fr.drangies.cordova.serial/www/serial.js",
            "pluginId": "fr.drangies.cordova.serial",
            "clobbers": [
                "window.serial"
            ]
        },
        {
            "id": "cordova-plugin-splashscreen.SplashScreen",
            "file": "plugins/cordova-plugin-splashscreen/www/splashscreen.js",
            "pluginId": "cordova-plugin-splashscreen",
            "clobbers": [
                "navigator.splashscreen"
            ]
        },
        {
            "id": "cordova-plugin-statusbar.statusbar",
            "file": "plugins/cordova-plugin-statusbar/www/statusbar.js",
            "pluginId": "cordova-plugin-statusbar",
            "clobbers": [
                "window.StatusBar"
            ]
        }
    ],
    "plugin_metadata": {
        "cordova-plugin-whitelist": "1.3.0",
        "fr.drangies.cordova.serial": "0.0.7",
        "cordova-plugin-splashscreen": "4.0.0",
        "cordova-plugin-statusbar": "2.2.0"
    }
}